^C:\USERS\ZBUZA\DESKTOP\ETHMINER\ETHMINER-0.16.2\ETHMINER-0.16.2\BUILD\CMAKEFILES\506D31BCE4410DD41578ADD04847C52C\ETHASH.H.RULE
setlocal"C:\Program Files\CMake\bin\cmake.exe" -DBIN2H_SOURCE_FILE="C:/Users/zbuza/Desktop/ethminer/ethminer-0.16.2/ethminer-0.16.2/libethash-cl/kernels/cl/ethash.cl" -DBIN2H_VARIABLE_NAME=ethash_cl -DBIN2H_HEADER_FILE="C:/Users/zbuza/Desktop/ethminer/ethminer-0.16.2/ethminer-0.16.2/build/libethash-cl/ethash.h" -P C:/Users/zbuza/Desktop/ethminer/ethminer-0.16.2/ethminer-0.16.2/libethash-cl/bin2h.cmakeif %errorlevel% neq 0 goto :cmEnd:cmEndendlocal & call :cmErrorLevel %errorlevel% & goto :cmDone:cmErrorLevelexit /b %1:cmDoneif %errorlevel% neq 0 goto :VCEnd
^C:\USERS\ZBUZA\DESKTOP\ETHMINER\ETHMINER-0.16.2\ETHMINER-0.16.2\LIBETHASH-CL\CMAKELISTS.TXT
setlocal"C:\Program Files\CMake\bin\cmake.exe" -SC:/Users/zbuza/Desktop/ethminer/ethminer-0.16.2/ethminer-0.16.2 -BC:/Users/zbuza/Desktop/ethminer/ethminer-0.16.2/ethminer-0.16.2/build --check-stamp-file C:/Users/zbuza/Desktop/ethminer/ethminer-0.16.2/ethminer-0.16.2/build/libethash-cl/CMakeFiles/generate.stampif %errorlevel% neq 0 goto :cmEnd:cmEndendlocal & call :cmErrorLevel %errorlevel% & goto :cmDone:cmErrorLevelexit /b %1:cmDoneif %errorlevel% neq 0 goto :VCEnd
