^C:\USERS\ZBUZA\DESKTOP\ETHMINER\ETHMINER-0.16.2\ETHMINER-0.16.2\LIBAPICORE\APISERVER.CPP
/c /I"C:\USERS\ZBUZA\DESKTOP\ETHMINER\ETHMINER-0.16.2\ETHMINER-0.16.2\LIBAPICORE\.." /I"C:\PROGRAM FILES\NVIDIA GPU COMPUTING TOOLKIT\CUDA\V10.0\INCLUDE" /I"C:\USERS\ZBUZA\DESKTOP\ETHMINER\ETHMINER-0.16.2\ETHMINER-0.16.2\BUILD" /IC:\.HUNTER\_BASE\951E8DA\A3A68BA\393D42F\INSTALL\INCLUDE /nologo /W3 /WX- /diagnostics:classic /O2 /Ob2 /GL /D WIN32 /D _WINDOWS /D NDEBUG /D ETH_ETHASHCL /D ETH_ETHASHCUDA /D API_CORE /D BIN_KERN /D _WIN32_WINNT=0x0600 /D NOMINMAX /D _CRT_SECURE_NO_WARNINGS /D BOOST_ALL_NO_LIB=1 /D "CMAKE_INTDIR=\"Release\"" /D _MBCS /Gm- /EHsc /MD /GS /fp:precise /Zc:wchar_t /Zc:forScope /Zc:inline /GR /Fo"APICORE.DIR\RELEASE\\" /Fd"APICORE.DIR\RELEASE\APICORE.PDB" /Gd /TP /wd4068 /wd4267 /wd4290 C:\USERS\ZBUZA\DESKTOP\ETHMINER\ETHMINER-0.16.2\ETHMINER-0.16.2\LIBAPICORE\APISERVER.CPP
^C:\USERS\ZBUZA\DESKTOP\ETHMINER\ETHMINER-0.16.2\ETHMINER-0.16.2\LIBAPICORE\HTTPSERVER.CPP
/c /I"C:\USERS\ZBUZA\DESKTOP\ETHMINER\ETHMINER-0.16.2\ETHMINER-0.16.2\LIBAPICORE\.." /I"C:\PROGRAM FILES\NVIDIA GPU COMPUTING TOOLKIT\CUDA\V10.0\INCLUDE" /I"C:\USERS\ZBUZA\DESKTOP\ETHMINER\ETHMINER-0.16.2\ETHMINER-0.16.2\BUILD" /IC:\.HUNTER\_BASE\951E8DA\A3A68BA\393D42F\INSTALL\INCLUDE /nologo /W3 /WX- /diagnostics:classic /O2 /Ob2 /GL /D WIN32 /D _WINDOWS /D NDEBUG /D ETH_ETHASHCL /D ETH_ETHASHCUDA /D API_CORE /D BIN_KERN /D _WIN32_WINNT=0x0600 /D NOMINMAX /D _CRT_SECURE_NO_WARNINGS /D BOOST_ALL_NO_LIB=1 /D "CMAKE_INTDIR=\"Release\"" /D _MBCS /Gm- /EHsc /MD /GS /fp:precise /Zc:wchar_t /Zc:forScope /Zc:inline /GR /Fo"APICORE.DIR\RELEASE\\" /Fd"APICORE.DIR\RELEASE\APICORE.PDB" /Gd /TP /wd4068 /wd4267 /wd4290 C:\USERS\ZBUZA\DESKTOP\ETHMINER\ETHMINER-0.16.2\ETHMINER-0.16.2\LIBAPICORE\HTTPSERVER.CPP
