^C:\USERS\ZBUZA\DESKTOP\ETHMINER\ETHMINER-0.16.2\ETHMINER-0.16.2\LIBHWMON\WRAPADL.CPP|C:\USERS\ZBUZA\DESKTOP\ETHMINER\ETHMINER-0.16.2\ETHMINER-0.16.2\LIBHWMON\WRAPAMDSYSFS.CPP|C:\USERS\ZBUZA\DESKTOP\ETHMINER\ETHMINER-0.16.2\ETHMINER-0.16.2\LIBHWMON\WRAPHELPER.CPP|C:\USERS\ZBUZA\DESKTOP\ETHMINER\ETHMINER-0.16.2\ETHMINER-0.16.2\LIBHWMON\WRAPNVML.CPP
C:\USERS\ZBUZA\DESKTOP\ETHMINER\ETHMINER-0.16.2\ETHMINER-0.16.2\BUILD\LIBHWMON\HWMON.DIR\RELEASE\WRAPAMDSYSFS.OBJ
C:\USERS\ZBUZA\DESKTOP\ETHMINER\ETHMINER-0.16.2\ETHMINER-0.16.2\BUILD\LIBHWMON\HWMON.DIR\RELEASE\WRAPNVML.OBJ
C:\USERS\ZBUZA\DESKTOP\ETHMINER\ETHMINER-0.16.2\ETHMINER-0.16.2\BUILD\LIBHWMON\HWMON.DIR\RELEASE\WRAPADL.OBJ
C:\USERS\ZBUZA\DESKTOP\ETHMINER\ETHMINER-0.16.2\ETHMINER-0.16.2\BUILD\LIBHWMON\HWMON.DIR\RELEASE\WRAPHELPER.OBJ
