^C:\USERS\ZBUZA\DESKTOP\ETHMINER\ETHMINER-0.16.2\ETHMINER-0.16.2\BUILD\LIBHWMON\HWMON.DIR\RELEASE\WRAPADL.OBJ|C:\USERS\ZBUZA\DESKTOP\ETHMINER\ETHMINER-0.16.2\ETHMINER-0.16.2\BUILD\LIBHWMON\HWMON.DIR\RELEASE\WRAPAMDSYSFS.OBJ|C:\USERS\ZBUZA\DESKTOP\ETHMINER\ETHMINER-0.16.2\ETHMINER-0.16.2\BUILD\LIBHWMON\HWMON.DIR\RELEASE\WRAPHELPER.OBJ|C:\USERS\ZBUZA\DESKTOP\ETHMINER\ETHMINER-0.16.2\ETHMINER-0.16.2\BUILD\LIBHWMON\HWMON.DIR\RELEASE\WRAPNVML.OBJ
C:\USERS\ZBUZA\DESKTOP\ETHMINER\ETHMINER-0.16.2\ETHMINER-0.16.2\BUILD\LIBHWMON\HWMON.DIR\RELEASE\WRAPHELPER.OBJ
C:\WINDOWS\SYSTEM32\TZRES.DLL
C:\USERS\ZBUZA\DESKTOP\ETHMINER\ETHMINER-0.16.2\ETHMINER-0.16.2\BUILD\LIBHWMON\HWMON.DIR\RELEASE\WRAPNVML.OBJ
C:\USERS\ZBUZA\DESKTOP\ETHMINER\ETHMINER-0.16.2\ETHMINER-0.16.2\BUILD\LIBHWMON\HWMON.DIR\RELEASE\WRAPADL.OBJ
C:\USERS\ZBUZA\DESKTOP\ETHMINER\ETHMINER-0.16.2\ETHMINER-0.16.2\BUILD\LIBHWMON\HWMON.DIR\RELEASE\WRAPAMDSYSFS.OBJ
C:\WINDOWS\GLOBALIZATION\SORTING\SORTDEFAULT.NLS
