^C:\USERS\ZBUZA\DESKTOP\ETHMINER\ETHMINER-0.16.2\ETHMINER-0.16.2\LIBETHCORE\BLOCKHEADER.CPP|C:\USERS\ZBUZA\DESKTOP\ETHMINER\ETHMINER-0.16.2\ETHMINER-0.16.2\LIBETHCORE\ETHASHAUX.CPP|C:\USERS\ZBUZA\DESKTOP\ETHMINER\ETHMINER-0.16.2\ETHMINER-0.16.2\LIBETHCORE\MINER.CPP
C:\USERS\ZBUZA\DESKTOP\ETHMINER\ETHMINER-0.16.2\ETHMINER-0.16.2\BUILD\LIBETHCORE\ETHCORE.DIR\RELEASE\MINER.OBJ
C:\USERS\ZBUZA\DESKTOP\ETHMINER\ETHMINER-0.16.2\ETHMINER-0.16.2\BUILD\LIBETHCORE\ETHCORE.DIR\RELEASE\ETHASHAUX.OBJ
C:\USERS\ZBUZA\DESKTOP\ETHMINER\ETHMINER-0.16.2\ETHMINER-0.16.2\BUILD\LIBETHCORE\ETHCORE.DIR\RELEASE\BLOCKHEADER.OBJ
