^C:\USERS\ZBUZA\DESKTOP\ETHMINER\ETHMINER-0.16.2\ETHMINER-0.16.2\BUILD\CMAKEFILES\C84D19780B6F2D00FC917FA707443482\ETHMINER-BUILDINFO-GIT.RULE
setlocal"C:\Program Files\CMake\bin\cmake.exe" "-DGIT=C:/Program Files/Git/cmd/git.exe" -DSOURCE_DIR=C:/Users/zbuza/Desktop/ethminer/ethminer-0.16.2/ethminer-0.16.2 -DOUTPUT_DIR=C:/Users/zbuza/Desktop/ethminer/ethminer-0.16.2/ethminer-0.16.2/build/ethminer -P C:/Users/zbuza/Desktop/ethminer/ethminer-0.16.2/ethminer-0.16.2/cmake/cable/buildinfo/gitinfo.cmakeif %errorlevel% neq 0 goto :cmEnd:cmEndendlocal & call :cmErrorLevel %errorlevel% & goto :cmDone:cmErrorLevelexit /b %1:cmDoneif %errorlevel% neq 0 goto :VCEnd
^C:\USERS\ZBUZA\DESKTOP\ETHMINER\ETHMINER-0.16.2\ETHMINER-0.16.2\CMAKELISTS.TXT
setlocal"C:\Program Files\CMake\bin\cmake.exe" -SC:/Users/zbuza/Desktop/ethminer/ethminer-0.16.2/ethminer-0.16.2 -BC:/Users/zbuza/Desktop/ethminer/ethminer-0.16.2/ethminer-0.16.2/build --check-stamp-file C:/Users/zbuza/Desktop/ethminer/ethminer-0.16.2/ethminer-0.16.2/build/CMakeFiles/generate.stampif %errorlevel% neq 0 goto :cmEnd:cmEndendlocal & call :cmErrorLevel %errorlevel% & goto :cmDone:cmErrorLevelexit /b %1:cmDoneif %errorlevel% neq 0 goto :VCEnd
