^C:\USERS\ZBUZA\DESKTOP\ETHMINER\ETHMINER-0.16.2\ETHMINER-0.16.2\BUILD\CMAKEFILES\3.13.2\COMPILERIDC\CMAKECCOMPILERID.C
C:\PROGRAM FILES (X86)\MICROSOFT VISUAL STUDIO\2017\COMMUNITY\VC\TOOLS\MSVC\14.16.27023\BIN\HOSTX86\X64\1033\CLUI.DLL
C:\WINDOWS\GLOBALIZATION\SORTING\SORTDEFAULT.NLS
C:\WINDOWS\SYSTEM32\TZRES.DLL
